An introduction to patternogram (extended) • patternogram
…
p_tt_cloud = patternogram(temp_train, cloud = TRUE)
#> Warning: The specified sample size is larger than number of points. Using all
#> points.
p_tt_cloud
#> # A tibble: 18,816 × 4
#>    left  right    dist dissimilarity
#>  * <fct> <fct>   <dbl>         <dbl>
#>  1 1     2     593411.        0.611 
#>  2 1     3     133678.        4.78  
#>  3 1     4     257536.        0.832 
#>  4 1     5     283439.        1.35  
#>  5 1     6     230360.        2.35  
#>  6 1     7     270287.        3.71  
#>  7 1     8     489869.        4.06  
#>  8 1     9     434453.        0.432 
#>  9 1     10    538924.        0.182 
#> 10 1     11    337312.        0.0831
#> # ℹ 18,806 more rows
…
p_pr_2 = c(p_pr, p_pr_np)
p_pr_2
#> # A tibble: 30 × 4
#>       np   dist dissimilarity id            
#>    <int>  <dbl>         <dbl> <chr>         
#>  1  2943  31700         0.216 patternogram_1
#>  2  7477  95200         0.309 patternogram_1
#>  3 11092 158500         0.378 patternogram_1
#>  4 13270 222000         0.430 patternogram_1
#>  5 14672 285500         0.463 patternogram_1
#>  6 15094 348500         0.492 patternogram_1
#>  7 14939 412000         0.513 patternogram_1
#>  8 13316 475500         0.511 patternogram_1
#>  9 10817 539000         0.515 patternogram_1
#> 10  8014 602500         0.519 patternogram_1
#> # ℹ 20 more rows
…
